{
    "femgen model": 
  
        {
            "__name__": "EJPD",
  
            "__description__": "Empirical Join Probability Distribution",
  
            "__type__": "dtosc:outputs:EJPD",
        
            "__properties__": [

              {"name":"latitude",
                "type":"double",
                "description":"latitude (WGS84)",
                "dim":""
                },
              {"name":"longitude",
                "type":"double",
                "description":"longitude (WGS84)",
                "dim":""
                },
              {"name":"bins1",
                "type":"double",
                "description":"bins of first variable",
                "dim":"*"
                },			  
              {"name":"bins2",
                "type":"double",
                "description":"bins of second variable",
                "dim":"*"
                },			  
              {"name":"pdf",
                "type":"double",
                "description":"probability distribution function of variables",
                "dim":"*,*"
                }
        ]
    }}