{
    "femgen model": 
  
        {
            "__name__": "EXT",
  
            "__description__": "EXTreme value analysis",
  
            "__type__": "dtosc:outputs:EXT",
        
            "__properties__": [

              {"name":"latitude",
                "type":"double",
                "description":"latitude (WGS84)",
                "dim":""
                },
              {"name":"longitude",
                "type":"double",
                "description":"longitude (WGS84)",
                "dim":""
                },
              {"name":"return_periods",
                "type":"double",
                "description":"return periods",
                "dim":"*"
                },			  
              {"name":"return_values",
                "type":"double",
                "description":"return values at each location and for each return period",
                "dim":"*"
                }
        ]
    }}