{
    "femgen model": 
  
        {
            "__name__": "Info",
  
            "__description__": "Information",
  
            "__type__": "dtosc:outputs:Info",
        
            "__properties__": [

              {"name":"name",
                "type":"string",
                "description":"list of names",
                "dim":"*"
                },			  
              {"name":"latitude",
                "type":"double",
                "description":"list of latitudes (WGS84)",
                "dim":"*"
                },
              {"name":"longitude",
                "type":"double",
                "description":"list of longitudes (WGS84)",
                "dim":"*"
                },
              {"name":"boundary",
                "type":"dtosc:outputs:Boundary",
                "description":"lease area boundaries"
                },
              {"name":"distance",
                "type":"double",
                "description":"distance between center of the farm (device) and landing point (in m)",
                "dim":""
                },
              {"name":"zonenumber",
                "type":"int",
                "description":"Number of the Universal Transverse Mercator (UTM) zone",
                "dim":""
                },
              {"name":"zoneletter",
                "type":"string",
                "description":"Letter of the Universal Transverse Mercator (UTM) zone",
                "dim":""
                },
              {"name":"surface",
                "type":"double",
                "description":"lease area extension in km2",
                "dim":""
                }			  
        ]
    }}