{
    "femgen model": 
  
        {
            "__name__": "SeabedType",
  
            "__description__": "Type of superficial sediment",
  
            "__type__": "dtosc:outputs:SeabedType",
        
            "__properties__": [

              {"name":"latitude",
                "type":"double",
                "description":"list of latitudes (WGS84)",
                "dim":"*"
                },
              {"name":"longitude",
                "type":"double",
                "description":"list of longitudes (WGS84)",
                "dim":"*"
                },
              {"name":"value",
                "type":"string",
                "description":"superficial sediment type",
                "dim":"*"
                },			  
              {"name":"unit",
                "type":"string",
                "description":"unitless",
                "value":"-"
              }
        ]
    }}