{
    "femgen model": 
  
        {
            "__name__": "EJPD3vWaves",
  
            "__description__": "Empirical Join Probability Distribution with 3 variables on Waves",
  
            "__type__": "dtosc:point:outputs:EJPD3vWaves",
        
            "__properties__": [

              {"name":"hs_tp_dp",
                "type":"dtosc:outputs:EJPD3v",
                "description":"Empirical Join Probability Distribution on significant wave height, wave peak period and direction"
              },
              {"name":"hs_tp_dp_monthly",
                "type":"dtosc:outputs:EJPD3vMonthly",
                "description":"Monthly Empirical Join Probability Distribution on significant wave height, wave peak period and direction"
              },
              {"name":"hs_tp_dp_flattened",
                "type":"dtosc:outputs:EJPD3v_flattened",
                "description":"Flattened Empirical Join Probability Distribution on significant wave height, wave peak period and direction"
              },
              {"name":"hs_tp_dp_monthly_flattened",
                "type":"dtosc:outputs:EJPD3vMonthly_flattened",
                "description":"Flattened Monthly Empirical Join Probability Distribution on significant wave height, wave peak period and direction"
              }
        ]
    }}