{
    "femgen model": 
  
        {
            "__name__": "EXCWaves",
  
            "__description__": "EXtreme Contours on Waves",
  
            "__type__": "dtosc:point:outputs:EXCWaves",
        
            "__properties__": [

              {"name":"hs_tp",
                "type":"dtosc:outputs:EXC",
                "description":"EXtreme Contours on significant wave height and wave peak period"
              }
        ]
    }}