{
    "SSH": [
      [
        [
          0.0
        ]
      ]
    ], 
    "TI": [
      [
        [
          0.0
        ]
      ]
    ], 
    "U": [
      [
        [
          0.0
        ]
      ]
    ], 
    "V": [
      [
        [
          0.0
        ]
      ]
    ], 
    "__type__": "dtosc:outputs:SMCurrents", 
    "description": "Matrice of currents", 
    "id": [
      0
    ], 
    "name": "none", 
    "p": [
      0.0
    ], 
    "x": [
      0.0
    ], 
    "y": [
      0.0
    ]
  }