{
    "__type__": "dtosc:corridor:outputs:CorridorResults", 
    "description": "corridor results", 
    "direct_values": {
      "__type__": "dtosc:outputs:DirectValues", 
      "bathymetry": {
        "__type__": "dtosc:outputs:Bathymetry", 
        "description": "Bathymetry", 
        "latitude": [
          0.0
        ], 
        "longitude": [
          0.0
        ], 
        "name": "none", 
        "unit": "m from msl", 
        "value": [
          0.0
        ]
      }, 
      "description": "direct values", 
      "marine_species": {
        "__type__": "dtosc:outputs:MarineSpecies", 
        "description": "Endangered marine species", 
        "latitude": [
          0.0
        ], 
        "longitude": [
          0.0
        ], 
        "name": "none", 
        "probability": [
          [
            0.0
          ]
        ], 
        "species": []
      }, 
      "name": "none", 
      "roughness_length": {
        "__type__": "dtosc:outputs:RoughnessLength", 
        "description": "Bottom roughness length", 
        "latitude": [
          0.0
        ], 
        "longitude": [
          0.0
        ], 
        "name": "none", 
        "unit": "mm", 
        "value": [
          0.0
        ]
      }, 
      "seabed_type": {
        "__type__": "dtosc:outputs:SeabedType", 
        "description": "Type of superficial sediment", 
        "latitude": [
          0.0
        ], 
        "longitude": [
          0.0
        ], 
        "name": "none", 
        "unit": "-", 
        "value": [
          ""
        ]
      }
    }, 
    "info": {
      "__type__": "dtosc:outputs:Info", 
      "boundary": {
        "__type__": "dtosc:outputs:Info", 
        "description": "", 
        "latitude": [
          0.0
        ], 
        "longitude": [
          0.0
        ], 
        "name": []
      }, 
      "description": "information on corridor", 
      "distance": 0.0, 
      "latitude": [
        0.0
      ], 
      "longitude": [
        0.0
      ], 
      "name": [], 
      "surface": 0.0, 
      "zoneletter": "", 
      "zonenumber": 0
    }, 
    "name": "none"
  }