{
    "Basic": {
      "CgE": {
        "__type__": "dtosc:outputs:BasicStats", 
        "description": "Basic statistics on wave energy flux", 
        "latitude": 0.0, 
        "longitude": 0.0, 
        "max": 0.0, 
        "mean": 0.0, 
        "median": 0.0, 
        "min": 0.0, 
        "name": "none", 
        "std": 0.0
      }, 
      "__type__": "dtosc:point:outputs:BasicWaves", 
      "description": "Basic statistics on waves", 
      "gamma": {
        "__type__": "dtosc:outputs:BasicStats", 
        "description": "Basic statistics on wave peak factor", 
        "latitude": 0.0, 
        "longitude": 0.0, 
        "max": 0.0, 
        "mean": 0.0, 
        "median": 0.0, 
        "min": 0.0, 
        "name": "none", 
        "std": 0.0
      }, 
      "hs": {
        "__type__": "dtosc:outputs:BasicStats", 
        "description": "Basic statistics on significant wave height", 
        "latitude": 0.0, 
        "longitude": 0.0, 
        "max": 0.0, 
        "mean": 0.0, 
        "median": 0.0, 
        "min": 0.0, 
        "name": "none", 
        "std": 0.0
      }, 
      "name": "none", 
      "spr": {
        "__type__": "dtosc:outputs:BasicStats", 
        "description": "Basic statistics on wave directional spreading", 
        "latitude": 0.0, 
        "longitude": 0.0, 
        "max": 0.0, 
        "mean": 0.0, 
        "median": 0.0, 
        "min": 0.0, 
        "name": "none", 
        "std": 0.0
      }, 
      "tp": {
        "__type__": "dtosc:outputs:BasicStats", 
        "description": "Basic statistics on wave peak period", 
        "latitude": 0.0, 
        "longitude": 0.0, 
        "max": 0.0, 
        "mean": 0.0, 
        "median": 0.0, 
        "min": 0.0, 
        "name": "none", 
        "std": 0.0
      }
    }, 
    "EJPD": {
      "__type__": "dtosc:point:outputs:EJPDWaves", 
      "description": "Empirical Join Probability Distribution on 2 wave variables", 
      "hs_dp": {
        "__type__": "dtosc:outputs:EJPD", 
        "bins1": [
          0.0
        ], 
        "bins2": [
          0.0
        ], 
        "description": "Empirical Join Probability Distribution on significant wave height and wave peak direction", 
        "latitude": 0.0, 
        "longitude": 0.0, 
        "name": "none", 
        "pdf": [
          [
            0.0
          ]
        ]
      }, 
      "hs_dp_monthly": {
        "__type__": "dtosc:outputs:EJPDMonthly", 
        "bins1": [
          0.0
        ], 
        "bins2": [
          0.0
        ], 
        "description": "Monthly Empirical Probability Distribution on significant wave height and wave peak direction", 
        "latitude": 0.0, 
        "longitude": 0.0, 
        "name": "none", 
        "pdf": [
          [
            [
              0.0
            ]
          ], 
          [
            [
              0.0
            ]
          ], 
          [
            [
              0.0
            ]
          ], 
          [
            [
              0.0
            ]
          ], 
          [
            [
              0.0
            ]
          ], 
          [
            [
              0.0
            ]
          ], 
          [
            [
              0.0
            ]
          ], 
          [
            [
              0.0
            ]
          ], 
          [
            [
              0.0
            ]
          ], 
          [
            [
              0.0
            ]
          ], 
          [
            [
              0.0
            ]
          ], 
          [
            [
              0.0
            ]
          ]
        ]
      }, 
      "hs_tp": {
        "__type__": "dtosc:outputs:EJPD", 
        "bins1": [
          0.0
        ], 
        "bins2": [
          0.0
        ], 
        "description": "Empirical Join Probability Distribution on significant wave height and wave peak period", 
        "latitude": 0.0, 
        "longitude": 0.0, 
        "name": "none", 
        "pdf": [
          [
            0.0
          ]
        ]
      }, 
      "hs_tp_monthly": {
        "__type__": "dtosc:outputs:EJPDMonthly", 
        "bins1": [
          0.0
        ], 
        "bins2": [
          0.0
        ], 
        "description": "Monthly Empirical Join Probability Distribution on significant wave height and wave peak period", 
        "latitude": 0.0, 
        "longitude": 0.0, 
        "name": "none", 
        "pdf": [
          [
            [
              0.0
            ]
          ], 
          [
            [
              0.0
            ]
          ], 
          [
            [
              0.0
            ]
          ], 
          [
            [
              0.0
            ]
          ], 
          [
            [
              0.0
            ]
          ], 
          [
            [
              0.0
            ]
          ], 
          [
            [
              0.0
            ]
          ], 
          [
            [
              0.0
            ]
          ], 
          [
            [
              0.0
            ]
          ], 
          [
            [
              0.0
            ]
          ], 
          [
            [
              0.0
            ]
          ], 
          [
            [
              0.0
            ]
          ]
        ]
      }, 
      "name": "none"
    }, 
    "EJPD3v": {
      "__type__": "dtosc:point:outputs:EJPD3vWaves", 
      "description": "Empirical Join Probability Distribution on 3 wave variables", 
      "hs_tp_dp": {
        "__type__": "dtosc:outputs:EJPD3v", 
        "bins1": [
          0.0
        ], 
        "bins2": [
          0.0
        ], 
        "bins3": [
          0.0
        ], 
        "description": "Empirical Join Probability Distribution on significant wave height, wave peak period and direction", 
        "latitude": 0.0, 
        "longitude": 0.0, 
        "name": "none", 
        "pdf": [
          [
            [
              0.0
            ]
          ]
        ]
      }, 
      "hs_tp_dp_flattened": {
        "__type__": "dtosc:outputs:EJPD3v_flattened", 
        "bins1": [
          "0-0.5"
        ], 
        "bins2": [
          "0-0.5"
        ], 
        "bins3": [
          "0-0.5"
        ], 
        "description": "Flattened Empirical Join Probability Distribution on significant wave height, wave peak period and direction", 
        "id": [
          0
        ], 
        "latitude": 0.0, 
        "longitude": 0.0, 
        "name": "none", 
        "pdf": [
          0.0
        ]
      }, 
      "hs_tp_dp_monthly": {
        "__type__": "dtosc:outputs:EJPD3vMonthly", 
        "bins1": [
          0.0
        ], 
        "bins2": [
          0.0
        ], 
        "bins3": [
          0.0
        ], 
        "description": "Monthly Empirical Join Probability Distribution on significant wave height, wave peak period and direction", 
        "latitude": 0.0, 
        "longitude": 0.0, 
        "name": "none", 
        "pdf": [
          [
            [
              [
                0.0
              ]
            ]
          ], 
          [
            [
              [
                0.0
              ]
            ]
          ], 
          [
            [
              [
                0.0
              ]
            ]
          ], 
          [
            [
              [
                0.0
              ]
            ]
          ], 
          [
            [
              [
                0.0
              ]
            ]
          ], 
          [
            [
              [
                0.0
              ]
            ]
          ], 
          [
            [
              [
                0.0
              ]
            ]
          ], 
          [
            [
              [
                0.0
              ]
            ]
          ], 
          [
            [
              [
                0.0
              ]
            ]
          ], 
          [
            [
              [
                0.0
              ]
            ]
          ], 
          [
            [
              [
                0.0
              ]
            ]
          ], 
          [
            [
              [
                0.0
              ]
            ]
          ]
        ]
      }, 
      "hs_tp_dp_monthly_flattened": {
        "__type__": "dtosc:outputs:EJPD3vMonthly_flattened", 
        "bins1": [
          "0-0.5"
        ], 
        "bins2": [
          "0-0.5"
        ], 
        "bins3": [
          "0-0.5"
        ], 
        "description": "Flattened Monthly Empirical Join Probability Distribution on significant wave height, wave peak period and direction", 
        "id": [
          [
            0
          ], 
          [
            0
          ], 
          [
            0
          ], 
          [
            0
          ], 
          [
            0
          ], 
          [
            0
          ], 
          [
            0
          ], 
          [
            0
          ], 
          [
            0
          ], 
          [
            0
          ], 
          [
            0
          ], 
          [
            0
          ]
        ], 
        "latitude": 0.0, 
        "longitude": 0.0, 
        "name": "none", 
        "pdf": [
          [
            0.0
          ], 
          [
            0.0
          ], 
          [
            0.0
          ], 
          [
            0.0
          ], 
          [
            0.0
          ], 
          [
            0.0
          ], 
          [
            0.0
          ], 
          [
            0.0
          ], 
          [
            0.0
          ], 
          [
            0.0
          ], 
          [
            0.0
          ], 
          [
            0.0
          ]
        ]
      }, 
      "name": "none"
    }, 
    "ENVS": {
      "__type__": "dtosc:point:outputs:ENVSWaves", 
      "associated_cur": [
        0.0
      ], 
      "associated_dircur": [
        0.0
      ], 
      "associated_dirwind": [
        0.0
      ], 
      "associated_tp": [
        0.0
      ], 
      "associated_wind": [
        0.0
      ], 
      "description": "Environments for fatigue analysis (Station Keeping)", 
      "hs_dp_proba": [
        0.0
      ], 
      "intervals_dp_max": [
        0.0
      ], 
      "intervals_dp_min": [
        0.0
      ], 
      "intervals_hs_max": [
        0.0
      ], 
      "intervals_hs_min": [
        0.0
      ], 
      "latitude": 0.0, 
      "longitude": 0.0, 
      "name": "none"
    }, 
    "EPD": {
      "__type__": "dtosc:point:outputs:EPDWaves", 
      "description": "Empirical Probability Distribution on 1 wave variable", 
      "dp": {
        "__type__": "dtosc:outputs:EPD", 
        "bins": [
          0.0
        ], 
        "description": "Empirical Probability Distribution on wave peak direction", 
        "latitude": 0.0, 
        "longitude": 0.0, 
        "name": "none", 
        "pdf": [
          0.0
        ]
      }, 
      "dp_monthly": {
        "__type__": "dtosc:outputs:EPDMonthly", 
        "bins": [
          0.0
        ], 
        "description": "Monthly Empirical Probability Distribution on wave peak direction", 
        "latitude": 0.0, 
        "longitude": 0.0, 
        "name": "none", 
        "pdf": [
          [
            0.0
          ], 
          [
            0.0
          ], 
          [
            0.0
          ], 
          [
            0.0
          ], 
          [
            0.0
          ], 
          [
            0.0
          ], 
          [
            0.0
          ], 
          [
            0.0
          ], 
          [
            0.0
          ], 
          [
            0.0
          ], 
          [
            0.0
          ], 
          [
            0.0
          ]
        ]
      }, 
      "hs": {
        "__type__": "dtosc:outputs:EPD", 
        "bins": [
          0.0
        ], 
        "description": "Empirical Probability Distribution on significant wave height", 
        "latitude": 0.0, 
        "longitude": 0.0, 
        "name": "none", 
        "pdf": [
          0.0
        ]
      }, 
      "hs_monthly": {
        "__type__": "dtosc:outputs:EPDMonthly", 
        "bins": [
          0.0
        ], 
        "description": "Monthly Empirical Probability Distribution on significant wave height", 
        "latitude": 0.0, 
        "longitude": 0.0, 
        "name": "none", 
        "pdf": [
          [
            0.0
          ], 
          [
            0.0
          ], 
          [
            0.0
          ], 
          [
            0.0
          ], 
          [
            0.0
          ], 
          [
            0.0
          ], 
          [
            0.0
          ], 
          [
            0.0
          ], 
          [
            0.0
          ], 
          [
            0.0
          ], 
          [
            0.0
          ], 
          [
            0.0
          ]
        ]
      }, 
      "name": "none", 
      "tp": {
        "__type__": "dtosc:outputs:EPD", 
        "bins": [
          0.0
        ], 
        "description": "Empirical Probability Distribution on wave peak period", 
        "latitude": 0.0, 
        "longitude": 0.0, 
        "name": "none", 
        "pdf": [
          0.0
        ]
      }, 
      "tp_monthly": {
        "__type__": "dtosc:outputs:EPDMonthly", 
        "bins": [
          0.0
        ], 
        "description": "Monthly Empirical Probability Distribution on wave peak period", 
        "latitude": 0.0, 
        "longitude": 0.0, 
        "name": "none", 
        "pdf": [
          [
            0.0
          ], 
          [
            0.0
          ], 
          [
            0.0
          ], 
          [
            0.0
          ], 
          [
            0.0
          ], 
          [
            0.0
          ], 
          [
            0.0
          ], 
          [
            0.0
          ], 
          [
            0.0
          ], 
          [
            0.0
          ], 
          [
            0.0
          ], 
          [
            0.0
          ]
        ]
      }
    }, 
    "EXC": {
      "__type__": "dtosc:point:outputs:EXCWaves", 
      "description": "Extreme environmental contours of wave variables using IFORM approach", 
      "hs_tp": {
        "__type__": "dtosc:outputs:EXC", 
        "description": "EXtreme Contours on significant wave height and wave peak period", 
        "latitude": 0.0, 
        "longitude": 0.0, 
        "name": "none", 
        "return_periods": [
          0.0
        ], 
        "return_values1": [
          [
            0.0
          ]
        ], 
        "return_values2": [
          [
            0.0
          ]
        ]
      }, 
      "name": "none"
    }, 
    "EXT": {
      "__type__": "dtosc:point:outputs:EXTWaves", 
      "description": "Extreme Value Analysis on wave variable", 
      "gamma": {
        "__type__": "dtosc:outputs:EXT", 
        "description": "EXtreme value analysis on wave peak factor", 
        "latitude": 0.0, 
        "longitude": 0.0, 
        "name": "none", 
        "return_periods": [
          0.0
        ], 
        "return_values": [
          0.0
        ]
      }, 
      "hs": {
        "__type__": "dtosc:outputs:EXT", 
        "description": "EXtreme value analysis on significant wave height", 
        "latitude": 0.0, 
        "longitude": 0.0, 
        "name": "none", 
        "return_periods": [
          0.0
        ], 
        "return_values": [
          0.0
        ]
      }, 
      "name": "none", 
      "tp": {
        "__type__": "dtosc:outputs:EXT", 
        "description": "EXtreme value analysis on wave peak period", 
        "latitude": 0.0, 
        "longitude": 0.0, 
        "name": "none", 
        "return_periods": [
          0.0
        ], 
        "return_values": [
          0.0
        ]
      }
    }, 
    "__type__": "dtosc:point:outputs:StatsWaves", 
    "description": "Statistics on waves", 
    "name": "none"
  }