{
  "femgen model": 

      {
          "__name__": "dr_corridor",

          "__description__": "Corridor Digital representation",

          "__type__": "dtosc:dr:dr_corridor",
      
          "__properties__": [
            {"name":"bathymetry_corridor",
              "type":"dtosc:outputs:Bathymetry",
              "description":"Corridor bathymetry [m]"
            }
      ]
  }}