{
    "femgen model": 
  
        {
            "__name__": "dr_resource",
  
            "__description__": "Resource digital representation",
  
            "__type__": "dtosc:dr:dr_resource",
        
            "__properties__": [
              {"name":"statistics",
                "type":"dtosc:dr:dr_statistics"
              },
              {"name":"time_series",
                "type":"dtosc:dr:dr_time_series"
              }                  
        ]
    }}